ncverilog.log
ncverilog: 15.20-s084: (c) Copyright 1995-2020 Cadence Design Systems, Inc.
TOOL:	ncverilog	15.20-s084: Started on Jun 08, 2022 at 00:48:10 CST
ncverilog
	tb.v
	SW.v
	+define+tb1
Loading snapshot worklib.tb:v .................... Done
*Verdi* Loading libsscore_ius152.so
ncsim> source /usr/cad/cadence/INCISIV/cur/tools/inca/files/ncsimrc
ncsim> run
./dat/ref1.dat, ./dat/query1.dat and ./dat/golden1.dat were used for this simulation.
H_out[0] =    x, H_out[1] =    x, H_out[2] =    x, H_out[3] =    x, max_r =    x
H_out[0] =    x, H_out[1] =    x, H_out[2] =    x, H_out[3] =    x, max_r =    0
H_out[0] =    x, H_out[1] =    x, H_out[2] =    x, H_out[3] =    x, max_r =    0
H_out[0] =    x, H_out[1] =    x, H_out[2] =    x, H_out[3] =    x, max_r =    0
H_out[0] =    x, H_out[1] =    x, H_out[2] =    x, H_out[3] =    x, max_r =    0
H_out[0] =    x, H_out[1] =    x, H_out[2] =    x, H_out[3] =    x, max_r =    0
H_out[0] =    x, H_out[1] =    x, H_out[2] =    x, H_out[3] =    x, max_r =    0
H_out[0] =    x, H_out[1] =    x, H_out[2] =    x, H_out[3] =    x, max_r =    0
H_out[0] =    x, H_out[1] =    x, H_out[2] =    x, H_out[3] =    x, max_r =    0
H_out[0] =    x, H_out[1] =    x, H_out[2] =    x, H_out[3] =    x, max_r =    0
H_out[0] =    x, H_out[1] =    x, H_out[2] =    x, H_out[3] =    x, max_r =    0
H_out[0] =    x, H_out[1] =    x, H_out[2] =    x, H_out[3] =    x, max_r =    0
H_out[0] =    x, H_out[1] =    x, H_out[2] =    x, H_out[3] =    x, max_r =    0
H_out[0] =    x, H_out[1] =    x, H_out[2] =    x, H_out[3] =    x, max_r =    0
H_out[0] =    x, H_out[1] =    x, H_out[2] =    x, H_out[3] =    x, max_r =    0
H_out[0] =    x, H_out[1] =    x, H_out[2] =    x, H_out[3] =    x, max_r =    0
H_out[0] =    x, H_out[1] =    x, H_out[2] =    x, H_out[3] =    x, max_r =    0
H_out[0] =    x, H_out[1] =    x, H_out[2] =    x, H_out[3] =    x, max_r =    0
H_out[0] =    x, H_out[1] =    x, H_out[2] =    x, H_out[3] =    x, max_r =    0
H_out[0] =    x, H_out[1] =    x, H_out[2] =    x, H_out[3] =    x, max_r =    0
H_out[0] =    x, H_out[1] =    x, H_out[2] =    x, H_out[3] =    x, max_r =    0
H_out[0] =    x, H_out[1] =    x, H_out[2] =    x, H_out[3] =    x, max_r =    0
H_out[0] =    x, H_out[1] =    x, H_out[2] =    x, H_out[3] =    x, max_r =    0
H_out[0] =    x, H_out[1] =    x, H_out[2] =    x, H_out[3] =    x, max_r =    0
H_out[0] =    x, H_out[1] =    x, H_out[2] =    x, H_out[3] =    x, max_r =    0
H_out[0] =    x, H_out[1] =    x, H_out[2] =    x, H_out[3] =    x, max_r =    0
H_out[0] =    x, H_out[1] =    x, H_out[2] =    x, H_out[3] =    x, max_r =    0
H_out[0] =    x, H_out[1] =    x, H_out[2] =    x, H_out[3] =    x, max_r =    0
H_out[0] =    x, H_out[1] =    x, H_out[2] =    x, H_out[3] =    x, max_r =    0
H_out[0] =    x, H_out[1] =    x, H_out[2] =    x, H_out[3] =    x, max_r =    0
H_out[0] =    x, H_out[1] =    x, H_out[2] =    x, H_out[3] =    x, max_r =    0
H_out[0] =    x, H_out[1] =    x, H_out[2] =    x, H_out[3] =    x, max_r =    0
H_out[0] =    x, H_out[1] =    x, H_out[2] =    x, H_out[3] =    x, max_r =    0
H_out[0] =    x, H_out[1] =    x, H_out[2] =    x, H_out[3] =    x, max_r =    0
H_out[0] =    x, H_out[1] =    x, H_out[2] =    x, H_out[3] =    x, max_r =    0
H_out[0] =    x, H_out[1] =    x, H_out[2] =    x, H_out[3] =    x, max_r =    0
H_out[0] =    x, H_out[1] =    x, H_out[2] =    x, H_out[3] =    x, max_r =    0
H_out[0] =    x, H_out[1] =    x, H_out[2] =    x, H_out[3] =    x, max_r =    0
H_out[0] =    x, H_out[1] =    x, H_out[2] =    x, H_out[3] =    x, max_r =    0
H_out[0] =    x, H_out[1] =    x, H_out[2] =    x, H_out[3] =    x, max_r =    0
H_out[0] =    x, H_out[1] =    x, H_out[2] =    x, H_out[3] =    x, max_r =    0
H_out[0] =    x, H_out[1] =    x, H_out[2] =    x, H_out[3] =    x, max_r =    0
H_out[0] =    x, H_out[1] =    x, H_out[2] =    x, H_out[3] =    x, max_r =    0
H_out[0] =    x, H_out[1] =    x, H_out[2] =    x, H_out[3] =    x, max_r =    0
H_out[0] =    x, H_out[1] =    x, H_out[2] =    x, H_out[3] =    x, max_r =    0
H_out[0] =    x, H_out[1] =    x, H_out[2] =    x, H_out[3] =    x, max_r =    0
H_out[0] =    x, H_out[1] =    x, H_out[2] =    x, H_out[3] =    x, max_r =    0
H_out[0] =    x, H_out[1] =    x, H_out[2] =    x, H_out[3] =    x, max_r =    0
H_out[0] =    x, H_out[1] =    x, H_out[2] =    x, H_out[3] =    x, max_r =    0
H_out[0] =    x, H_out[1] =    x, H_out[2] =    x, H_out[3] =    x, max_r =    0
H_out[0] =    x, H_out[1] =    x, H_out[2] =    x, H_out[3] =    x, max_r =    0
H_out[0] =    x, H_out[1] =    x, H_out[2] =    x, H_out[3] =    x, max_r =    0
H_out[0] =    x, H_out[1] =    x, H_out[2] =    x, H_out[3] =    x, max_r =    0
H_out[0] =    x, H_out[1] =    x, H_out[2] =    x, H_out[3] =    x, max_r =    0
H_out[0] =    x, H_out[1] =    x, H_out[2] =    x, H_out[3] =    x, max_r =    0
H_out[0] =    x, H_out[1] =    x, H_out[2] =    x, H_out[3] =    x, max_r =    0
H_out[0] =    x, H_out[1] =    x, H_out[2] =    x, H_out[3] =    x, max_r =    0
H_out[0] =    x, H_out[1] =    x, H_out[2] =    x, H_out[3] =    x, max_r =    0
H_out[0] =    x, H_out[1] =    x, H_out[2] =    x, H_out[3] =    x, max_r =    0
H_out[0] =    x, H_out[1] =    x, H_out[2] =    x, H_out[3] =    x, max_r =    0
H_out[0] =    x, H_out[1] =    x, H_out[2] =    x, H_out[3] =    x, max_r =    0
H_out[0] =    x, H_out[1] =    x, H_out[2] =    x, H_out[3] =    x, max_r =    0
H_out[0] =    x, H_out[1] =    x, H_out[2] =    x, H_out[3] =    x, max_r =    0
H_out[0] =    x, H_out[1] =    x, H_out[2] =    x, H_out[3] =    x, max_r =    0
H_out[0] =    x, H_out[1] =    x, H_out[2] =    x, H_out[3] =    x, max_r =    0
H_out[0] =    x, H_out[1] =    x, H_out[2] =    x, H_out[3] =    x, max_r =    0
H_out[0] =    x, H_out[1] =    x, H_out[2] =    x, H_out[3] =    x, max_r =    0
H_out[0] =    x, H_out[1] =    x, H_out[2] =    x, H_out[3] =    x, max_r =    0
H_out[0] =    x, H_out[1] =    x, H_out[2] =    x, H_out[3] =    x, max_r =    0
H_out[0] =    2, H_out[1] =    0, H_out[2] =    0, H_out[3] =    2, max_r =    0
H_out[0] =    0, H_out[1] =    0, H_out[2] =    0, H_out[3] =    2, max_r =    0
H_out[0] =    2, H_out[1] =    4, H_out[2] =    0, H_out[3] =    2, max_r =    2
H_out[0] =    0, H_out[1] =    2, H_out[2] =    2, H_out[3] =    2, max_r =    2
H_out[0] =    2, H_out[1] =    1, H_out[2] =    3, H_out[3] =    1, max_r =    4
H_out[0] =    0, H_out[1] =    0, H_out[2] =    4, H_out[3] =    4, max_r =    2
H_out[0] =    0, H_out[1] =    1, H_out[2] =    2, H_out[3] =    2, max_r =    4
H_out[0] =    2, H_out[1] =    0, H_out[2] =    2, H_out[3] =    6, max_r =    4
H_out[0] =    2, H_out[1] =    0, H_out[2] =    0, H_out[3] =    4, max_r =    4
H_out[0] =    0, H_out[1] =    1, H_out[2] =    0, H_out[3] =    3, max_r =    6
H_out[0] =    0, H_out[1] =    1, H_out[2] =    0, H_out[3] =    2, max_r =    4
H_out[0] =    0, H_out[1] =    0, H_out[2] =    3, H_out[3] =    2, max_r =    6
H_out[0] =    2, H_out[1] =    0, H_out[2] =    1, H_out[3] =    1, max_r =    4
H_out[0] =    0, H_out[1] =    0, H_out[2] =    0, H_out[3] =    2, max_r =    6
H_out[0] =    2, H_out[1] =    1, H_out[2] =    0, H_out[3] =    0, max_r =    4
H_out[0] =    0, H_out[1] =    0, H_out[2] =    2, H_out[3] =    2, max_r =    6
H_out[0] =    2, H_out[1] =    1, H_out[2] =    0, H_out[3] =    0, max_r =    4
H_out[0] =    2, H_out[1] =    0, H_out[2] =    2, H_out[3] =    4, max_r =    6
H_out[0] =    0, H_out[1] =    1, H_out[2] =    0, H_out[3] =    2, max_r =    4
H_out[0] =    2, H_out[1] =    1, H_out[2] =    0, H_out[3] =    4, max_r =    6
H_out[0] =    0, H_out[1] =    0, H_out[2] =    3, H_out[3] =    2, max_r =    4
H_out[0] =    0, H_out[1] =    1, H_out[2] =    1, H_out[3] =    1, max_r =    6
H_out[0] =    2, H_out[1] =    0, H_out[2] =    2, H_out[3] =    5, max_r =    4
H_out[0] =    0, H_out[1] =    0, H_out[2] =    0, H_out[3] =    3, max_r =    6
H_out[0] =    2, H_out[1] =    1, H_out[2] =    0, H_out[3] =    2, max_r =    5
H_out[0] =    0, H_out[1] =    0, H_out[2] =    2, H_out[3] =    2, max_r =    6
H_out[0] =    0, H_out[1] =    1, H_out[2] =    0, H_out[3] =    0, max_r =    5
H_out[0] =    2, H_out[1] =    2, H_out[2] =    2, H_out[3] =    4, max_r =    6
H_out[0] =    2, H_out[1] =    0, H_out[2] =    0, H_out[3] =    2, max_r =    5
H_out[0] =    0, H_out[1] =    1, H_out[2] =    1, H_out[3] =    1, max_r =    6
H_out[0] =    0, H_out[1] =    1, H_out[2] =    0, H_out[3] =    2, max_r =    5
H_out[0] =    2, H_out[1] =    0, H_out[2] =    3, H_out[3] =    3, max_r =    6
H_out[0] =    0, H_out[1] =    0, H_out[2] =    3, H_out[3] =    1, max_r =    5
H_out[0] =    2, H_out[1] =    1, H_out[2] =    1, H_out[3] =    2, max_r =    6
H_out[0] =    0, H_out[1] =    0, H_out[2] =    2, H_out[3] =    5, max_r =    5
H_out[0] =    2, H_out[1] =    1, H_out[2] =    0, H_out[3] =    3, max_r =    6
H_out[0] =    0, H_out[1] =    0, H_out[2] =    2, H_out[3] =    4, max_r =    5
H_out[0] =    2, H_out[1] =    1, H_out[2] =    0, H_out[3] =    2, max_r =    6
H_out[0] =    0, H_out[1] =    0, H_out[2] =    2, H_out[3] =    4, max_r =    5
H_out[0] =    2, H_out[1] =    1, H_out[2] =    0, H_out[3] =    2, max_r =    6
H_out[0] =    0, H_out[1] =    0, H_out[2] =    2, H_out[3] =    4, max_r =    5
H_out[0] =    2, H_out[1] =    1, H_out[2] =    0, H_out[3] =    2, max_r =    6
H_out[0] =    0, H_out[1] =    0, H_out[2] =    2, H_out[3] =    4, max_r =    5
H_out[0] =    2, H_out[1] =    1, H_out[2] =    0, H_out[3] =    2, max_r =    6
H_out[0] =    2, H_out[1] =    0, H_out[2] =    2, H_out[3] =    4, max_r =    5
H_out[0] =    0, H_out[1] =    1, H_out[2] =    0, H_out[3] =    2, max_r =    6
H_out[0] =    0, H_out[1] =    1, H_out[2] =    0, H_out[3] =    4, max_r =    5
H_out[0] =    0, H_out[1] =    2, H_out[2] =    0, H_out[3] =    2, max_r =    6
H_out[0] =    0, H_out[1] =    2, H_out[2] =    0, H_out[3] =    1, max_r =    5
H_out[0] =    2, H_out[1] =    0, H_out[2] =    1, H_out[3] =    0, max_r =    6
H_out[0] =    0, H_out[1] =    0, H_out[2] =    4, H_out[3] =    0, max_r =    5
H_out[0] =    0, H_out[1] =    1, H_out[2] =    2, H_out[3] =    2, max_r =    6
H_out[0] =    0, H_out[1] =    2, H_out[2] =    1, H_out[3] =    6, max_r =    5
H_out[0] =    0, H_out[1] =    0, H_out[2] =    0, H_out[3] =    4, max_r =    6
H_out[0] =    0, H_out[1] =    2, H_out[2] =    1, H_out[3] =    3, max_r =    6
H_out[0] =    0, H_out[1] =    2, H_out[2] =    0, H_out[3] =    2, max_r =    6
H_out[0] =    0, H_out[1] =    2, H_out[2] =    1, H_out[3] =    1, max_r =    6
H_out[0] =    0, H_out[1] =    0, H_out[2] =    1, H_out[3] =    0, max_r =    6
H_out[0] =    2, H_out[1] =    2, H_out[2] =    1, H_out[3] =    0, max_r =    6
H_out[0] =    0, H_out[1] =    0, H_out[2] =    0, H_out[3] =    0, max_r =    6
H_out[0] =    0, H_out[1] =    4, H_out[2] =    1, H_out[3] =    0, max_r =    6
H_out[0] =    0, H_out[1] =    2, H_out[2] =    2, H_out[3] =    2, max_r =    6
H_out[0] =    0, H_out[1] =    2, H_out[2] =    3, H_out[3] =    1, max_r =    6
H_out[0] =    0, H_out[1] =    2, H_out[2] =    1, H_out[3] =    1, max_r =    6
H_out[0] =    0, H_out[1] =    2, H_out[2] =    1, H_out[3] =    2, max_r =    6
H_out[0] =    4, H_out[1] =    0, H_out[2] =    1, H_out[3] =    0, max_r =    6
I =    0, D =   -2, H =    4, index_i =   3, index_j =  5, H_previous =    0
H_out[0] =    2, H_out[1] =    2, H_out[2] =    0, H_out[3] =    0, max_r =    6
H_out[0] =    3, H_out[1] =    3, H_out[2] =    1, H_out[3] =    0, max_r =    6
H_out[0] =    4, H_out[1] =    4, H_out[2] =    2, H_out[3] =    0, max_r =    6
H_out[0] =    5, H_out[1] =    3, H_out[2] =    2, H_out[3] =    0, max_r =    6
H_out[0] =    3, H_out[1] =    6, H_out[2] =    6, H_out[3] =    1, max_r =    6
H_out[0] =    2, H_out[1] =    4, H_out[2] =    4, H_out[3] =    4, max_r =    6
H_out[0] =    1, H_out[1] =    3, H_out[2] =    8, H_out[3] =    5, max_r =    6
H_out[0] =    1, H_out[1] =    2, H_out[2] =    6, H_out[3] =    6, max_r =    6
H_out[0] =    0, H_out[1] =    3, H_out[2] =    5, H_out[3] =    7, max_r =    8
H_out[0] =    1, H_out[1] =    1, H_out[2] =    4, H_out[3] =    5, max_r =    6
H_out[0] =    0, H_out[1] =    0, H_out[2] =    5, H_out[3] =    4, max_r =    8
H_out[0] =    1, H_out[1] =    0, H_out[2] =    3, H_out[3] =    3, max_r =    6
H_out[0] =    2, H_out[1] =    2, H_out[2] =    2, H_out[3] =    4, max_r =    8
H_out[0] =    3, H_out[1] =    1, H_out[2] =    1, H_out[3] =    2, max_r =    6
H_out[0] =    2, H_out[1] =    4, H_out[2] =    4, H_out[3] =    1, max_r =    8
H_out[0] =    3, H_out[1] =    2, H_out[2] =    2, H_out[3] =    2, max_r =    6
H_out[0] =    1, H_out[1] =    1, H_out[2] =    6, H_out[3] =    3, max_r =    8
H_out[0] =    3, H_out[1] =    5, H_out[2] =    4, H_out[3] =    4, max_r =    6
H_out[0] =    4, H_out[1] =    3, H_out[2] =    3, H_out[3] =    5, max_r =    8
H_out[0] =    2, H_out[1] =    5, H_out[2] =    7, H_out[3] =    3, max_r =    6
H_out[0] =    1, H_out[1] =    3, H_out[2] =    5, H_out[3] =    5, max_r =    8
H_out[0] =    1, H_out[1] =    2, H_out[2] =    7, H_out[3] =    6, max_r =    7
H_out[0] =    2, H_out[1] =    3, H_out[2] =    5, H_out[3] =    5, max_r =    8
H_out[0] =    3, H_out[1] =    1, H_out[2] =    4, H_out[3] =    6, max_r =    7
H_out[0] =    4, H_out[1] =    4, H_out[2] =    5, H_out[3] =    4, max_r =    8
H_out[0] =    2, H_out[1] =    2, H_out[2] =    3, H_out[3] =    3, max_r =    7
H_out[0] =    1, H_out[1] =    3, H_out[2] =    6, H_out[3] =    4, max_r =    8
H_out[0] =    2, H_out[1] =    1, H_out[2] =    4, H_out[3] =    4, max_r =    7
H_out[0] =    0, H_out[1] =    3, H_out[2] =    3, H_out[3] =    5, max_r =    8
H_out[0] =    3, H_out[1] =    4, H_out[2] =    3, H_out[3] =    3, max_r =    7
H_out[0] =    4, H_out[1] =    2, H_out[2] =    5, H_out[3] =    5, max_r =    8
H_out[0] =    2, H_out[1] =    5, H_out[2] =    3, H_out[3] =    3, max_r =    7
H_out[0] =    3, H_out[1] =    3, H_out[2] =    3, H_out[3] =    4, max_r =    8
H_out[0] =    2, H_out[1] =    4, H_out[2] =    7, H_out[3] =    2, max_r =    7
H_out[0] =    3, H_out[1] =    2, H_out[2] =    5, H_out[3] =    5, max_r =    8
H_out[0] =    2, H_out[1] =    4, H_out[2] =    6, H_out[3] =    6, max_r =    7
H_out[0] =    3, H_out[1] =    2, H_out[2] =    4, H_out[3] =    4, max_r =    8
H_out[0] =    2, H_out[1] =    4, H_out[2] =    6, H_out[3] =    5, max_r =    7
H_out[0] =    3, H_out[1] =    2, H_out[2] =    4, H_out[3] =    4, max_r =    8
H_out[0] =    2, H_out[1] =    4, H_out[2] =    6, H_out[3] =    5, max_r =    7
H_out[0] =    3, H_out[1] =    2, H_out[2] =    4, H_out[3] =    4, max_r =    8
H_out[0] =    2, H_out[1] =    4, H_out[2] =    6, H_out[3] =    5, max_r =    7
H_out[0] =    3, H_out[1] =    2, H_out[2] =    4, H_out[3] =    4, max_r =    8
H_out[0] =    1, H_out[1] =    1, H_out[2] =    6, H_out[3] =    5, max_r =    7
H_out[0] =    3, H_out[1] =    2, H_out[2] =    4, H_out[3] =    4, max_r =    8
H_out[0] =    2, H_out[1] =    1, H_out[2] =    3, H_out[3] =    5, max_r =    7
H_out[0] =    1, H_out[1] =    2, H_out[2] =    4, H_out[3] =    3, max_r =    8
H_out[0] =    4, H_out[1] =    4, H_out[2] =    2, H_out[3] =    2, max_r =    7
H_out[0] =    5, H_out[1] =    3, H_out[2] =    2, H_out[3] =    3, max_r =    8
H_out[0] =    6, H_out[1] =    3, H_out[2] =    3, H_out[3] =    1, max_r =    7
H_out[0] =    4, H_out[1] =    4, H_out[2] =    2, H_out[3] =    4, max_r =    8
H_out[0] =    4, H_out[1] =    5, H_out[2] =    5, H_out[3] =    5, max_r =    7
H_out[0] =    3, H_out[1] =    3, H_out[2] =    3, H_out[3] =    3, max_r =    8
H_out[0] =    2, H_out[1] =    3, H_out[2] =    4, H_out[3] =    4, max_r =    7
H_out[0] =    0, H_out[1] =    2, H_out[2] =    2, H_out[3] =    2, max_r =    8
H_out[0] =    2, H_out[1] =    1, H_out[2] =    2, H_out[3] =    6, max_r =    7
H_out[0] =    0, H_out[1] =    0, H_out[2] =    1, H_out[3] =    4, max_r =    8
H_out[0] =    4, H_out[1] =    1, H_out[2] =    0, H_out[3] =    4, max_r =    7
H_out[0] =    2, H_out[1] =    2, H_out[2] =    0, H_out[3] =    3, max_r =    8
H_out[0] =    0, H_out[1] =    3, H_out[2] =    1, H_out[3] =    2, max_r =    7
H_out[0] =    2, H_out[1] =    0, H_out[2] =    4, H_out[3] =    0, max_r =    8
H_out[0] =    2, H_out[1] =    0, H_out[2] =    0, H_out[3] =    3, max_r =    7
H_out[0] =    0, H_out[1] =    1, H_out[2] =    1, H_out[3] =    0, max_r =    8
H_out[0] =    3, H_out[1] =    0, H_out[2] =    0, H_out[3] =    0, max_r =    7
H_out[0] =    3, H_out[1] =    2, H_out[2] =    0, H_out[3] =    0, max_r =    8
H_out[0] =    7, H_out[1] =    5, H_out[2] =    1, H_out[3] =    0, max_r =    7
H_out[0] =    5, H_out[1] =    5, H_out[2] =    3, H_out[3] =    2, max_r =    8
H_out[0] =    9, H_out[1] =    9, H_out[2] =    4, H_out[3] =    2, max_r =    7
H_out[0] =    7, H_out[1] =    7, H_out[2] =    7, H_out[3] =    5, max_r =    8
H_out[0] =    6, H_out[1] =    8, H_out[2] =   11, H_out[3] =    6, max_r =    9
H_out[0] =    5, H_out[1] =    9, H_out[2] =    9, H_out[3] =    9, max_r =    8
H_out[0] =    6, H_out[1] =    8, H_out[2] =    8, H_out[3] =    7, max_r =   11
H_out[0] =    4, H_out[1] =    6, H_out[2] =    8, H_out[3] =    8, max_r =    9
H_out[0] =    3, H_out[1] =    5, H_out[2] =    7, H_out[3] =    7, max_r =   11
H_out[0] =    2, H_out[1] =    4, H_out[2] =    5, H_out[3] =   10, max_r =    9
H_out[0] =    5, H_out[1] =    5, H_out[2] =    4, H_out[3] =    8, max_r =   11
H_out[0] =    3, H_out[1] =    3, H_out[2] =    3, H_out[3] =    7, max_r =   10
H_out[0] =    7, H_out[1] =    7, H_out[2] =    4, H_out[3] =    6, max_r =   11
H_out[0] =    5, H_out[1] =    5, H_out[2] =    5, H_out[3] =    5, max_r =   10
H_out[0] =    4, H_out[1] =    9, H_out[2] =    6, H_out[3] =    4, max_r =   11
H_out[0] =    8, H_out[1] =    7, H_out[2] =    7, H_out[3] =    7, max_r =   10
H_out[0] =    6, H_out[1] =    6, H_out[2] =    8, H_out[3] =    6, max_r =   11
H_out[0] =    8, H_out[1] =   10, H_out[2] =    6, H_out[3] =    6, max_r =   10
H_out[0] =    6, H_out[1] =    8, H_out[2] =    8, H_out[3] =    7, max_r =   11
H_out[0] =    5, H_out[1] =    7, H_out[2] =    9, H_out[3] =    8, max_r =   10
H_out[0] =    6, H_out[1] =    8, H_out[2] =    7, H_out[3] =    7, max_r =   11
H_out[0] =    4, H_out[1] =    6, H_out[2] =    6, H_out[3] =   11, max_r =   10
H_out[0] =    7, H_out[1] =    8, H_out[2] =    7, H_out[3] =    9, max_r =   11
H_out[0] =    5, H_out[1] =    6, H_out[2] =    6, H_out[3] =    8, max_r =   11
H_out[0] =    4, H_out[1] =    6, H_out[2] =    7, H_out[3] =    9, max_r =   11
H_out[0] =    3, H_out[1] =    7, H_out[2] =    5, H_out[3] =    7, max_r =   11
H_out[0] =    6, H_out[1] =    6, H_out[2] =    5, H_out[3] =    9, max_r =   11
H_out[0] =    4, H_out[1] =    4, H_out[2] =    6, H_out[3] =    7, max_r =   11
H_out[0] =    4, H_out[1] =    5, H_out[2] =    5, H_out[3] =    6, max_r =   11
H_out[0] =    8, H_out[1] =    6, H_out[2] =    6, H_out[3] =    8, max_r =   11
H_out[0] =    6, H_out[1] =    6, H_out[2] =    4, H_out[3] =    6, max_r =   11
H_out[0] =    7, H_out[1] =   10, H_out[2] =    5, H_out[3] =    8, max_r =   11
H_out[0] =    5, H_out[1] =    8, H_out[2] =    8, H_out[3] =    6, max_r =   11
H_out[0] =    7, H_out[1] =    9, H_out[2] =    9, H_out[3] =    7, max_r =   11
H_out[0] =    5, H_out[1] =    7, H_out[2] =    7, H_out[3] =    7, max_r =   11
H_out[0] =    7, H_out[1] =    9, H_out[2] =    8, H_out[3] =   11, max_r =   11
H_out[0] =    5, H_out[1] =    7, H_out[2] =    7, H_out[3] =    9, max_r =   11
H_out[0] =    7, H_out[1] =    9, H_out[2] =    8, H_out[3] =    8, max_r =   11
H_out[0] =    5, H_out[1] =    7, H_out[2] =    7, H_out[3] =    9, max_r =   11
H_out[0] =    7, H_out[1] =    9, H_out[2] =    8, H_out[3] =    7, max_r =   11
H_out[0] =    5, H_out[1] =    7, H_out[2] =    7, H_out[3] =    9, max_r =   11
H_out[0] =    4, H_out[1] =    9, H_out[2] =    8, H_out[3] =    7, max_r =   11
H_out[0] =    3, H_out[1] =    7, H_out[2] =    7, H_out[3] =    9, max_r =   11
H_out[0] =    2, H_out[1] =    6, H_out[2] =    8, H_out[3] =    7, max_r =   11
H_out[0] =    3, H_out[1] =    5, H_out[2] =    6, H_out[3] =    9, max_r =   11
H_out[0] =    7, H_out[1] =    4, H_out[2] =    5, H_out[3] =    7, max_r =   11
H_out[0] =    5, H_out[1] =    5, H_out[2] =    4, H_out[3] =    8, max_r =   11
H_out[0] =    4, H_out[1] =    9, H_out[2] =    4, H_out[3] =    6, max_r =   11
H_out[0] =    4, H_out[1] =    7, H_out[2] =    7, H_out[3] =    6, max_r =   11
H_out[0] =    5, H_out[1] =    6, H_out[2] =   11, H_out[3] =    6, max_r =   11
H_out[0] =    3, H_out[1] =    5, H_out[2] =    9, H_out[3] =    9, max_r =   11
H_out[0] =    3, H_out[1] =    4, H_out[2] =    8, H_out[3] =   10, max_r =   11
H_out[0] =    2, H_out[1] =    3, H_out[2] =    7, H_out[3] =    8, max_r =   11
H_out[0] =    1, H_out[1] =    2, H_out[2] =    6, H_out[3] =    7, max_r =   11
H_out[0] =    1, H_out[1] =    1, H_out[2] =    5, H_out[3] =    9, max_r =   11
H_out[0] =    0, H_out[1] =    0, H_out[2] =    4, H_out[3] =    7, max_r =   11
H_out[0] =    0, H_out[1] =    0, H_out[2] =    3, H_out[3] =    6, max_r =   11
H_out[0] =    1, H_out[1] =    0, H_out[2] =    0, H_out[3] =    5, max_r =   11
H_out[0] =    3, H_out[1] =    0, H_out[2] =    2, H_out[3] =    0, max_r =   11
H_out[0] =    5, H_out[1] =    2, H_out[2] =    0, H_out[3] =    3, max_r =   11
H_out[0] =    8, H_out[1] =    4, H_out[2] =    2, H_out[3] =    2, max_r =   11
H_out[0] =    0, H_out[1] =    7, H_out[2] =    3, H_out[3] =    1, max_r =   11
H_out[0] =    6, H_out[1] =    0, H_out[2] =    6, H_out[3] =    2, max_r =   11
H_out[0] =   10, H_out[1] =    5, H_out[2] =    0, H_out[3] =    5, max_r =   11
H_out[0] =    8, H_out[1] =    8, H_out[2] =    4, H_out[3] =    0, max_r =   11
H_out[0] =   12, H_out[1] =    9, H_out[2] =    7, H_out[3] =    3, max_r =   11
H_out[0] =   10, H_out[1] =   10, H_out[2] =   10, H_out[3] =    6, max_r =   11
H_out[0] =    9, H_out[1] =   11, H_out[2] =   11, H_out[3] =    8, max_r =   12
H_out[0] =    8, H_out[1] =   12, H_out[2] =   12, H_out[3] =    9, max_r =   11
H_out[0] =    7, H_out[1] =   10, H_out[2] =   10, H_out[3] =   10, max_r =   12
H_out[0] =    6, H_out[1] =    9, H_out[2] =   11, H_out[3] =   11, max_r =   12
H_out[0] =    6, H_out[1] =    8, H_out[2] =   12, H_out[3] =    9, max_r =   12
H_out[0] =    5, H_out[1] =    8, H_out[2] =   10, H_out[3] =   10, max_r =   12
H_out[0] =    8, H_out[1] =    8, H_out[2] =   10, H_out[3] =    8, max_r =   12
H_out[0] =    6, H_out[1] =    6, H_out[2] =    8, H_out[3] =    9, max_r =   12
H_out[0] =   10, H_out[1] =    7, H_out[2] =    7, H_out[3] =   12, max_r =   12
H_out[0] =    9, H_out[1] =    8, H_out[2] =    8, H_out[3] =   10, max_r =   12
H_out[0] =   13, H_out[1] =    9, H_out[2] =    9, H_out[3] =    9, max_r =   12
H_out[0] =   11, H_out[1] =   11, H_out[2] =    7, H_out[3] =    8, max_r =   12
H_out[0] =   10, H_out[1] =   12, H_out[2] =   10, H_out[3] =    8, max_r =   13
H_out[0] =   11, H_out[1] =   10, H_out[2] =   10, H_out[3] =    9, max_r =   12
H_out[0] =    9, H_out[1] =    9, H_out[2] =   14, H_out[3] =   12, max_r =   13
H_out[0] =    8, H_out[1] =   10, H_out[2] =   12, H_out[3] =   12, max_r =   12
H_out[0] =    9, H_out[1] =   11, H_out[2] =   11, H_out[3] =   13, max_r =   14
H_out[0] =    7, H_out[1] =    9, H_out[2] =   10, H_out[3] =   11, max_r =   12
H_out[0] =   10, H_out[1] =    8, H_out[2] =   13, H_out[3] =   13, max_r =   14
H_out[0] =    8, H_out[1] =    8, H_out[2] =   11, H_out[3] =   11, max_r =   12
H_out[0] =    7, H_out[1] =    9, H_out[2] =   10, H_out[3] =   15, max_r =   14
H_out[0] =    8, H_out[1] =    7, H_out[2] =   10, H_out[3] =   13, max_r =   12
H_out[0] =    9, H_out[1] =    6, H_out[2] =    8, H_out[3] =   12, max_r =   15
H_out[0] =    9, H_out[1] =    7, H_out[2] =    7, H_out[3] =   12, max_r =   13
H_out[0] =   10, H_out[1] =    8, H_out[2] =    8, H_out[3] =   10, max_r =   15
H_out[0] =   11, H_out[1] =    8, H_out[2] =    7, H_out[3] =    9, max_r =   13
H_out[0] =    9, H_out[1] =    9, H_out[2] =   10, H_out[3] =    8, max_r =   15
H_out[0] =   11, H_out[1] =   10, H_out[2] =    8, H_out[3] =    8, max_r =   13
H_out[0] =    9, H_out[1] =    9, H_out[2] =    8, H_out[3] =   12, max_r =   15
H_out[0] =   11, H_out[1] =   10, H_out[2] =   12, H_out[3] =   10, max_r =   13
H_out[0] =    9, H_out[1] =    9, H_out[2] =   11, H_out[3] =   10, max_r =   15
H_out[0] =   11, H_out[1] =   10, H_out[2] =    9, H_out[3] =   11, max_r =   13
H_out[0] =    9, H_out[1] =    9, H_out[2] =    8, H_out[3] =   10, max_r =   15
H_out[0] =   11, H_out[1] =   10, H_out[2] =   12, H_out[3] =   11, max_r =   13
H_out[0] =    9, H_out[1] =    9, H_out[2] =   10, H_out[3] =   10, max_r =   15
H_out[0] =   10, H_out[1] =   10, H_out[2] =   12, H_out[3] =   11, max_r =   13
H_out[0] =    8, H_out[1] =    8, H_out[2] =   10, H_out[3] =   10, max_r =   15
H_out[0] =    8, H_out[1] =    9, H_out[2] =   12, H_out[3] =   14, max_r =   13
H_out[0] =    8, H_out[1] =    7, H_out[2] =   10, H_out[3] =   12, max_r =   15
H_out[0] =    8, H_out[1] =    7, H_out[2] =   11, H_out[3] =   14, max_r =   14
H_out[0] =    9, H_out[1] =   10, H_out[2] =    9, H_out[3] =   12, max_r =   15
H_out[0] =    7, H_out[1] =    8, H_out[2] =    9, H_out[3] =   13, max_r =   14
H_out[0] =    7, H_out[1] =    8, H_out[2] =    9, H_out[3] =   11, max_r =   15
H_out[0] =   11, H_out[1] =    6, H_out[2] =   10, H_out[3] =   11, max_r =   14
H_out[0] =    9, H_out[1] =    9, H_out[2] =    8, H_out[3] =    9, max_r =   15
H_out[0] =    8, H_out[1] =   13, H_out[2] =    8, H_out[3] =   12, max_r =   14
